[
  { "datetime": "2018-06-12 09:41", "event": "A recommends B" },
  { "datetime": "2018-06-14 09:41", "event": "B accepts" },
  { "datetime": "2018-06-16 09:41", "event": "B recommends C" },
  { "datetime": "2018-06-17 09:41", "event": "C accepts" },
  { "datetime": "2018-06-19 09:41", "event": "C recommends D" },
  { "datetime": "2018-06-23 09:41", "event": "B recommends D" },
  { "datetime": "2018-06-25 09:41", "event": "D accepts" }
]
